<?xml version="1.0" encoding="utf-8"?>
<!-- Generator: Adobe Illustrator 19.2.1, SVG Export Plug-In . SVG Version: 6.00 Build 0)  -->
<svg version="1.1" id="Capa_1" xmlns="http://www.w3.org/2000/svg" xmlns:xlink="http://www.w3.org/1999/xlink" x="0px" y="0px"
	 viewBox="0 0 32.9 110.1" style="enable-background:new 0 0 32.9 110.1;" xml:space="preserve">
<style type="text/css">
	.st0{fill:#FFFFFF;}
</style>
<path d="M32.4,28.8L6,54.5C5.6,54.9,5.2,55,4.7,55c-0.5,0-0.9-0.2-1.3-0.6l-2.8-2.8C0.2,51.4,0,50.9,0,50.5c0-0.5,0.2-0.9,0.6-1.3
	l22.2-21.7L0.6,5.8C0.2,5.5,0,5.1,0,4.6c0-0.5,0.2-0.9,0.6-1.3l2.8-2.8C3.8,0.2,4.2,0,4.7,0C5.2,0,5.6,0.2,6,0.6l26.4,25.7
	c0.4,0.4,0.6,0.8,0.6,1.3C32.9,28,32.7,28.4,32.4,28.8L32.4,28.8z"/>
<path class="st0" d="M32.4,83.8L6,109.5c-0.4,0.4-0.8,0.6-1.3,0.6c-0.5,0-0.9-0.2-1.3-0.6l-2.8-2.8C0.2,106.4,0,106,0,105.5
	c0-0.5,0.2-0.9,0.6-1.3l22.2-21.7L0.6,60.9C0.2,60.5,0,60.1,0,59.6c0-0.5,0.2-0.9,0.6-1.3l2.8-2.8C3.8,55.2,4.2,55,4.7,55
	c0.5,0,0.9,0.2,1.3,0.6l26.4,25.7c0.4,0.4,0.6,0.8,0.6,1.3C32.9,83,32.7,83.5,32.4,83.8L32.4,83.8z"/>
</svg>
