<?xml version="1.0" encoding="utf-8"?>
<!-- Generator: Adobe Illustrator 19.2.1, SVG Export Plug-In . SVG Version: 6.00 Build 0)  -->
<svg version="1.1" id="Capa_1" xmlns="http://www.w3.org/2000/svg" xmlns:xlink="http://www.w3.org/1999/xlink" x="0px" y="0px"
	 viewBox="0 0 55.1 62.8" style="enable-background:new 0 0 55.1 62.8;" xml:space="preserve">
<style type="text/css">
	.st0{fill:#FFFFFF;}
</style>
<path d="M26.3,30.9L0.6,5.7C0.2,5.4,0,4.9,0,4.5C0,4,0.2,3.6,0.6,3.2l2.8-2.7C3.7,0.2,4.1,0,4.6,0s0.9,0.2,1.3,0.5l21.7,21.2
	L49.2,0.5C49.6,0.2,50,0,50.5,0s0.9,0.2,1.3,0.5l2.8,2.7C55,3.6,55.1,4,55.1,4.4c0,0.5-0.2,0.9-0.5,1.2L28.8,30.9
	c-0.4,0.4-0.8,0.5-1.3,0.5C27.1,31.4,26.6,31.2,26.3,30.9L26.3,30.9z"/>
<path class="st0" d="M26.3,62.3L0.6,37.1C0.2,36.8,0,36.3,0,35.9c0-0.5,0.2-0.9,0.6-1.3l2.8-2.7c0.3-0.3,0.7-0.5,1.2-0.5
	s0.9,0.2,1.3,0.5l21.7,21.2l21.6-21.2c0.4-0.3,0.8-0.5,1.3-0.5s0.9,0.2,1.3,0.5l2.8,2.7c0.4,0.4,0.5,0.8,0.5,1.2
	c0,0.5-0.2,0.9-0.5,1.2L28.8,62.3c-0.4,0.4-0.8,0.5-1.3,0.5C27.1,62.8,26.6,62.6,26.3,62.3L26.3,62.3z"/>
</svg>
